^C:\USERS\GILLOTND1\DOCUMENTS\GAMES\SPACE-CHASE\ENTITY.CPP
/c /I"C:\Program Files (x86)\Microsoft DirectX SDK (June 2010)\\Include" /ZI /nologo /W3 /WX- /Od /Oy- /D _MBCS /Gm /EHsc /RTC1 /MDd /GS /fp:precise /Zc:wchar_t /Zc:forScope /Fo"DEBUG\\" /Fd"DEBUG\VC110.PDB" /Gd /TP /analyze- C:\USERS\GILLOTND1\DOCUMENTS\GAMES\SPACE-CHASE\ENTITY.CPP
^C:\USERS\GILLOTND1\DOCUMENTS\GAMES\SPACE-CHASE\GAME.CPP
/c /I"C:\Program Files (x86)\Microsoft DirectX SDK (June 2010)\\Include" /ZI /nologo /W3 /WX- /Od /Oy- /D _MBCS /Gm /EHsc /RTC1 /MDd /GS /fp:precise /Zc:wchar_t /Zc:forScope /Fo"DEBUG\\" /Fd"DEBUG\VC110.PDB" /Gd /TP /analyze- C:\USERS\GILLOTND1\DOCUMENTS\GAMES\SPACE-CHASE\GAME.CPP
^C:\USERS\GILLOTND1\DOCUMENTS\GAMES\SPACE-CHASE\GRAPHICS.CPP
/c /I"C:\Program Files (x86)\Microsoft DirectX SDK (June 2010)\\Include" /ZI /nologo /W3 /WX- /Od /Oy- /D _MBCS /Gm /EHsc /RTC1 /MDd /GS /fp:precise /Zc:wchar_t /Zc:forScope /Fo"DEBUG\\" /Fd"DEBUG\VC110.PDB" /Gd /TP /analyze- C:\USERS\GILLOTND1\DOCUMENTS\GAMES\SPACE-CHASE\GRAPHICS.CPP
^C:\USERS\GILLOTND1\DOCUMENTS\GAMES\SPACE-CHASE\IMAGE.CPP
/c /I"C:\Program Files (x86)\Microsoft DirectX SDK (June 2010)\\Include" /ZI /nologo /W3 /WX- /Od /Oy- /D _MBCS /Gm /EHsc /RTC1 /MDd /GS /fp:precise /Zc:wchar_t /Zc:forScope /Fo"DEBUG\\" /Fd"DEBUG\VC110.PDB" /Gd /TP /analyze- C:\USERS\GILLOTND1\DOCUMENTS\GAMES\SPACE-CHASE\IMAGE.CPP
^C:\USERS\GILLOTND1\DOCUMENTS\GAMES\SPACE-CHASE\INPUT.CPP
/c /I"C:\Program Files (x86)\Microsoft DirectX SDK (June 2010)\\Include" /ZI /nologo /W3 /WX- /Od /Oy- /D _MBCS /Gm /EHsc /RTC1 /MDd /GS /fp:precise /Zc:wchar_t /Zc:forScope /Fo"DEBUG\\" /Fd"DEBUG\VC110.PDB" /Gd /TP /analyze- C:\USERS\GILLOTND1\DOCUMENTS\GAMES\SPACE-CHASE\INPUT.CPP
^C:\USERS\GILLOTND1\DOCUMENTS\GAMES\SPACE-CHASE\PLANET.CPP
/c /I"C:\Program Files (x86)\Microsoft DirectX SDK (June 2010)\\Include" /ZI /nologo /W3 /WX- /Od /Oy- /D _MBCS /Gm /EHsc /RTC1 /MDd /GS /fp:precise /Zc:wchar_t /Zc:forScope /Fo"DEBUG\\" /Fd"DEBUG\VC110.PDB" /Gd /TP /analyze- C:\USERS\GILLOTND1\DOCUMENTS\GAMES\SPACE-CHASE\PLANET.CPP
^C:\USERS\GILLOTND1\DOCUMENTS\GAMES\SPACE-CHASE\SHIP.CPP
/c /I"C:\Program Files (x86)\Microsoft DirectX SDK (June 2010)\\Include" /ZI /nologo /W3 /WX- /Od /Oy- /D _MBCS /Gm /EHsc /RTC1 /MDd /GS /fp:precise /Zc:wchar_t /Zc:forScope /Fo"DEBUG\\" /Fd"DEBUG\VC110.PDB" /Gd /TP /analyze- C:\USERS\GILLOTND1\DOCUMENTS\GAMES\SPACE-CHASE\SHIP.CPP
^C:\USERS\GILLOTND1\DOCUMENTS\GAMES\SPACE-CHASE\SPACEWAR.CPP
/c /I"C:\Program Files (x86)\Microsoft DirectX SDK (June 2010)\\Include" /ZI /nologo /W3 /WX- /Od /Oy- /D _MBCS /Gm /EHsc /RTC1 /MDd /GS /fp:precise /Zc:wchar_t /Zc:forScope /Fo"DEBUG\\" /Fd"DEBUG\VC110.PDB" /Gd /TP /analyze- C:\USERS\GILLOTND1\DOCUMENTS\GAMES\SPACE-CHASE\SPACEWAR.CPP
^C:\USERS\GILLOTND1\DOCUMENTS\GAMES\SPACE-CHASE\TEXTUREMANAGER.CPP
/c /I"C:\Program Files (x86)\Microsoft DirectX SDK (June 2010)\\Include" /ZI /nologo /W3 /WX- /Od /Oy- /D _MBCS /Gm /EHsc /RTC1 /MDd /GS /fp:precise /Zc:wchar_t /Zc:forScope /Fo"DEBUG\\" /Fd"DEBUG\VC110.PDB" /Gd /TP /analyze- C:\USERS\GILLOTND1\DOCUMENTS\GAMES\SPACE-CHASE\TEXTUREMANAGER.CPP
^C:\USERS\GILLOTND1\DOCUMENTS\GAMES\SPACE-CHASE\WINMAIN.CPP
/c /I"C:\Program Files (x86)\Microsoft DirectX SDK (June 2010)\\Include" /ZI /nologo /W3 /WX- /Od /Oy- /D _MBCS /Gm /EHsc /RTC1 /MDd /GS /fp:precise /Zc:wchar_t /Zc:forScope /Fo"DEBUG\\" /Fd"DEBUG\VC110.PDB" /Gd /TP /analyze- C:\USERS\GILLOTND1\DOCUMENTS\GAMES\SPACE-CHASE\WINMAIN.CPP
^C:\USERS\GILLOTND1\DOCUMENTS\SPACE-CHASE\ASTEROID.CPP
/c /I"C:\Program Files (x86)\Microsoft DirectX SDK (June 2010)\\Include" /ZI /nologo /W3 /WX- /Od /Oy- /D _MBCS /Gm /EHsc /RTC1 /MDd /GS /fp:precise /Zc:wchar_t /Zc:forScope /Fo"DEBUG\\" /Fd"DEBUG\VC110.PDB" /Gd /TP /analyze- C:\USERS\GILLOTND1\DOCUMENTS\SPACE-CHASE\ASTEROID.CPP
^C:\USERS\GILLOTND1\DOCUMENTS\SPACE-CHASE\ENTITY.CPP
/c /I"C:\Program Files (x86)\Microsoft DirectX SDK (June 2010)\\Include" /ZI /nologo /W3 /WX- /Od /Oy- /D _MBCS /Gm /EHsc /RTC1 /MDd /GS /fp:precise /Zc:wchar_t /Zc:forScope /Fo"DEBUG\\" /Fd"DEBUG\VC110.PDB" /Gd /TP /analyze- C:\USERS\GILLOTND1\DOCUMENTS\SPACE-CHASE\ENTITY.CPP
^C:\USERS\GILLOTND1\DOCUMENTS\SPACE-CHASE\GAME.CPP
/c /I"C:\Program Files (x86)\Microsoft DirectX SDK (June 2010)\\Include" /ZI /nologo /W3 /WX- /Od /Oy- /D _MBCS /Gm /EHsc /RTC1 /MDd /GS /fp:precise /Zc:wchar_t /Zc:forScope /Fo"DEBUG\\" /Fd"DEBUG\VC110.PDB" /Gd /TP /analyze- C:\USERS\GILLOTND1\DOCUMENTS\SPACE-CHASE\GAME.CPP
^C:\USERS\GILLOTND1\DOCUMENTS\SPACE-CHASE\GRAPHICS.CPP
/c /I"C:\Program Files (x86)\Microsoft DirectX SDK (June 2010)\\Include" /ZI /nologo /W3 /WX- /Od /Oy- /D _MBCS /Gm /EHsc /RTC1 /MDd /GS /fp:precise /Zc:wchar_t /Zc:forScope /Fo"DEBUG\\" /Fd"DEBUG\VC110.PDB" /Gd /TP /analyze- C:\USERS\GILLOTND1\DOCUMENTS\SPACE-CHASE\GRAPHICS.CPP
^C:\USERS\GILLOTND1\DOCUMENTS\SPACE-CHASE\IMAGE.CPP
/c /I"C:\Program Files (x86)\Microsoft DirectX SDK (June 2010)\\Include" /ZI /nologo /W3 /WX- /Od /Oy- /D _MBCS /Gm /EHsc /RTC1 /MDd /GS /fp:precise /Zc:wchar_t /Zc:forScope /Fo"DEBUG\\" /Fd"DEBUG\VC110.PDB" /Gd /TP /analyze- C:\USERS\GILLOTND1\DOCUMENTS\SPACE-CHASE\IMAGE.CPP
^C:\USERS\GILLOTND1\DOCUMENTS\SPACE-CHASE\INPUT.CPP
/c /I"C:\Program Files (x86)\Microsoft DirectX SDK (June 2010)\\Include" /ZI /nologo /W3 /WX- /Od /Oy- /D _MBCS /Gm /EHsc /RTC1 /MDd /GS /fp:precise /Zc:wchar_t /Zc:forScope /Fo"DEBUG\\" /Fd"DEBUG\VC110.PDB" /Gd /TP /analyze- C:\USERS\GILLOTND1\DOCUMENTS\SPACE-CHASE\INPUT.CPP
^C:\USERS\GILLOTND1\DOCUMENTS\SPACE-CHASE\PLANET.CPP
/c /I"C:\Program Files (x86)\Microsoft DirectX SDK (June 2010)\\Include" /ZI /nologo /W3 /WX- /Od /Oy- /D _MBCS /Gm /EHsc /RTC1 /MDd /GS /fp:precise /Zc:wchar_t /Zc:forScope /Fo"DEBUG\\" /Fd"DEBUG\VC110.PDB" /Gd /TP /analyze- C:\USERS\GILLOTND1\DOCUMENTS\SPACE-CHASE\PLANET.CPP
^C:\USERS\GILLOTND1\DOCUMENTS\SPACE-CHASE\SEGMENT.CPP
/c /I"C:\Program Files (x86)\Microsoft DirectX SDK (June 2010)\\Include" /ZI /nologo /W3 /WX- /Od /Oy- /D _MBCS /Gm /EHsc /RTC1 /MDd /GS /fp:precise /Zc:wchar_t /Zc:forScope /Fo"DEBUG\\" /Fd"DEBUG\VC110.PDB" /Gd /TP /analyze- C:\USERS\GILLOTND1\DOCUMENTS\SPACE-CHASE\SEGMENT.CPP
^C:\USERS\GILLOTND1\DOCUMENTS\SPACE-CHASE\SHIP.CPP
/c /I"C:\Program Files (x86)\Microsoft DirectX SDK (June 2010)\\Include" /ZI /nologo /W3 /WX- /Od /Oy- /D _MBCS /Gm /EHsc /RTC1 /MDd /GS /fp:precise /Zc:wchar_t /Zc:forScope /Fo"DEBUG\\" /Fd"DEBUG\VC110.PDB" /Gd /TP /analyze- C:\USERS\GILLOTND1\DOCUMENTS\SPACE-CHASE\SHIP.CPP
^C:\USERS\GILLOTND1\DOCUMENTS\SPACE-CHASE\SPACEWAR.CPP
/c /I"C:\Program Files (x86)\Microsoft DirectX SDK (June 2010)\\Include" /ZI /nologo /W3 /WX- /Od /Oy- /D _MBCS /Gm /EHsc /RTC1 /MDd /GS /fp:precise /Zc:wchar_t /Zc:forScope /Fo"DEBUG\\" /Fd"DEBUG\VC110.PDB" /Gd /TP /analyze- C:\USERS\GILLOTND1\DOCUMENTS\SPACE-CHASE\SPACEWAR.CPP
^C:\USERS\GILLOTND1\DOCUMENTS\SPACE-CHASE\TEXTUREMANAGER.CPP
/c /I"C:\Program Files (x86)\Microsoft DirectX SDK (June 2010)\\Include" /ZI /nologo /W3 /WX- /Od /Oy- /D _MBCS /Gm /EHsc /RTC1 /MDd /GS /fp:precise /Zc:wchar_t /Zc:forScope /Fo"DEBUG\\" /Fd"DEBUG\VC110.PDB" /Gd /TP /analyze- C:\USERS\GILLOTND1\DOCUMENTS\SPACE-CHASE\TEXTUREMANAGER.CPP
^C:\USERS\GILLOTND1\DOCUMENTS\SPACE-CHASE\WINMAIN.CPP
/c /I"C:\Program Files (x86)\Microsoft DirectX SDK (June 2010)\\Include" /ZI /nologo /W3 /WX- /Od /Oy- /D _MBCS /Gm /EHsc /RTC1 /MDd /GS /fp:precise /Zc:wchar_t /Zc:forScope /Fo"DEBUG\\" /Fd"DEBUG\VC110.PDB" /Gd /TP /analyze- C:\USERS\GILLOTND1\DOCUMENTS\SPACE-CHASE\WINMAIN.CPP
^C:\USERS\GILLOTND1\DOCUMENTS\SPACE-CHASE\PLAYERSHIP.CPP
/c /I"C:\Program Files (x86)\Microsoft DirectX SDK (June 2010)\\Include" /ZI /nologo /W3 /WX- /Od /Oy- /D _MBCS /Gm /EHsc /RTC1 /MDd /GS /fp:precise /Zc:wchar_t /Zc:forScope /Fo"DEBUG\\" /Fd"DEBUG\VC110.PDB" /Gd /TP /analyze- C:\USERS\GILLOTND1\DOCUMENTS\SPACE-CHASE\PLAYERSHIP.CPP
^C:\USERS\GILLOTND1\DOCUMENTS\SPACE-CHASE\BULLET.CPP
/c /I"C:\Program Files (x86)\Microsoft DirectX SDK (June 2010)\\Include" /ZI /nologo /W3 /WX- /Od /Oy- /D _MBCS /Gm /EHsc /RTC1 /MDd /GS /fp:precise /Zc:wchar_t /Zc:forScope /Fo"DEBUG\\" /Fd"DEBUG\VC110.PDB" /Gd /TP /analyze- C:\USERS\GILLOTND1\DOCUMENTS\SPACE-CHASE\BULLET.CPP
